[gd_scene load_steps=5 format=3 uid="uid://ci57o0fuabpbi"]

[ext_resource type="Script" path="res://Elements/shooter.gd" id="1_g7c47"]
[ext_resource type="AudioStream" uid="uid://dsg8vexixail6" path="res://Son/Shot_1.wav" id="2_dfh4a"]
[ext_resource type="AudioStream" uid="uid://byno5lb411dwi" path="res://Son/Shot_2.wav" id="3_4oxgs"]
[ext_resource type="AudioStream" uid="uid://dbrgsfl1d764t" path="res://Son/Shot_3.wav" id="4_vxt4s"]

[node name="Shooter" type="Node2D"]
script = ExtResource("1_g7c47")

[node name="Polygon2D" type="Polygon2D" parent="."]
visible = false
color = Color(0, 0.92549, 0.792157, 1)
polygon = PackedVector2Array(-20, 33, -20, -33, 100, 0)

[node name="SpawnPosition" type="Marker2D" parent="."]
position = Vector2(89, 0)

[node name="TimeLimit" type="Timer" parent="."]
wait_time = 0.16
one_shot = true

[node name="Shot_0" type="AudioStreamPlayer2D" parent="."]
stream = ExtResource("2_dfh4a")
volume_db = -30.0

[node name="Shot_1" type="AudioStreamPlayer2D" parent="."]
stream = ExtResource("3_4oxgs")
volume_db = -30.0

[node name="Shot_2" type="AudioStreamPlayer2D" parent="."]
stream = ExtResource("4_vxt4s")
volume_db = -30.0
